{
    "AWSEBDockerrunVersion": "1",
    "Image": {
      "Name": "brunopclaro/cars_st",
      "Update": "true"
    },
    "Ports": [
      {
        "ContainerPort": 8501,
        "HostPort": 8501
      }
    ],
    "Logging": "/var/log/nginx"
  }
  